Biostat 203B Homework 3
…
Answer:

library(tidyverse)

# Read d_labitems data
d_labitems <- read_csv("~/mimic/hosp/d_labitems.csv.gz", 
                        col_types = cols(
                          label = col_character(),
                          fluid = col_character(),
                          category = col_character(),
                          itemid = col_double())) %>%
  print(width = Inf)

# A tibble: 1,622 × 4
   itemid label                               fluid category 
    <dbl> <chr>                               <chr> <chr>    
 1  50801 Alveolar-arterial Gradient          Blood Blood Gas
 2  50802 Base Excess                         Blood Blood Gas
 3  50803 Calculated Bicarbonate, Whole Blood Blood Blood Gas
 4  50804 Calculated Total CO2                Blood Blood Gas
 5  50805 Carboxyhemoglobin                   Blood Blood Gas
 6  50806 Chloride, Whole Blood               Blood Blood Gas
 7  50808 Free Calcium                        Blood Blood Gas
 8  50809 Glucose                             Blood Blood Gas
 9  50810 Hematocrit, Calculated              Blood Blood Gas
10  50811 Hemoglobin                          Blood Blood Gas
# ℹ 1,612 more rows
…
Warning in left_join(., icustays_tble, by = "subject_id"): Detected an unexpected many-to-many relationship between `x` and `y`.
ℹ Row 845 of `x` matches multiple rows in `y`.
ℹ Row 1 of `y` matches multiple rows in `x`.
ℹ If a many-to-many relationship is expected, set `relationship =
  "many-to-many"` to silence this warning.

# Print the resulting labevents table
print(labevents_tble)

# A tibble: 158,108 × 12
   subject_id  stay_id storetime           intime              Bicarbonate
   <chr>         <dbl> <dttm>              <dttm>                    <dbl>
 1 10000032   39553978 2180-07-23 07:59:00 2180-07-23 14:00:00          25
 2 10000032   39553978 2180-07-23 07:00:00 2180-07-23 14:00:00          NA
 3 10000032   39553978 2180-07-23 08:14:00 2180-07-23 14:00:00          NA
 4 10000980   39765666 2189-06-27 07:56:00 2189-06-27 08:42:00          21
 5 10000980   39765666 2189-06-27 07:06:00 2189-06-27 08:42:00          NA
 6 10001217   34592300 2157-12-19 08:17:00 2157-12-19 15:42:24          30
 7 10001217   34592300 2157-12-19 07:48:00 2157-12-19 15:42:24          NA
 8 10001217   37067082 2157-11-20 14:13:00 2157-11-20 19:18:02          22
 9 10001217   37067082 2157-11-20 13:49:00 2157-11-20 19:18:02          NA
10 10001725   31205490 2110-04-08 17:49:00 2110-04-11 15:52:22          NA
# ℹ 158,098 more rows
# ℹ 7 more variables: Chloride <dbl>, Creatinine <dbl>, Glucose <dbl>,
#   Hematocrit <dbl>, Potassium <dbl>, Sodium <dbl>, `White Blood Cells` <dbl>
…
print(chartevents_final_tble)

# A tibble: 73,164 × 7
   subject_id  stay_id heart_rate systolic_blood_pressure diastolic_blood_pres…¹
   <chr>         <dbl> <chr>      <chr>                   <chr>                 
 1 10000032   39553978 94         82                      59                    
 2 10000980   39765666 77         150                     77                    
 3 10001217   34592300 79         121                     72                    
 4 10001217   37067082 101        145                     84                    
 5 10001725   31205490 82         114                     65                    
 6 10001884   37510196 69         122                     67                    
 7 10002013   39060235 103        104                     70                    
 8 10002155   31090461 70         103                     57                    
 9 10002155   32358465 98         109                     65                    
10 10002155   33685454 75         118                     56                    
# ℹ 73,154 more rows
# ℹ abbreviated name: ¹​diastolic_blood_pressure
# ℹ 2 more variables: respiratory_rate <chr>, body_temperature_Fahrenheit <chr>
…
